[
  {
    "id": 1,
    "title": "Найча"
  },
  {
    "id": 2,
    "title": "Фруктовые чаи"
  },
  {
    "id": 3,
    "title": "Лимонады"
  },
  {
    "id": 4,
    "title": "Фирменный улун"
  },
  {
    "id": 5,
    "title": "Напитки с йогуртом \"Angel\""
  }
]
